What are the environmental factors that drive chlorophyll-a (Chl-a) concentration in the Mediterranean Sea? – Chla Variability of the Med Sea
…
What are the environmental factors that drive chlorophyll-a (Chl-a) concentration in the Mediterranean Sea?

    Author

             Simon Oiry 

# A tibble: 972 × 4
   Date       Box      GeoMean_Chla STD_Chla
   <date>     <chr>           <dbl>    <dbl>
 1 1998-01-01 Adriatic       0.143   0.0371 
 2 1998-01-01 Cyprus         0.0842  0.0222 
 3 1998-01-01 Lyon           0.219   0.0848 
 4 1998-02-01 Adriatic       0.180   0.120  
 5 1998-02-01 Cyprus         0.0730  0.00741
 6 1998-02-01 Lyon           0.482   0.325  
 7 1998-03-01 Adriatic       0.162   0.0641 
 8 1998-03-01 Cyprus         0.0777  0.00741
 9 1998-03-01 Lyon           0.598   0.403  
10 1998-04-01 Adriatic       0.186   0.0629 
# ℹ 962 more rows
…
